{"frames": [

{
	"filename": "board.png",
	"frame": {"x":0,"y":0,"w":444,"h":437},
	"rotated": false,
	"trimmed": false,
	"spriteSourceSize": {"x":0,"y":0,"w":444,"h":437},
	"sourceSize": {"w":444,"h":437},
	"pivot": {"x":0.5,"y":0.5}
},
{
	"filename": "Zombie.png",
	"frame": {"x":0,"y":437,"w":895,"h":1000},
	"rotated": false,
	"trimmed": false,
	"spriteSourceSize": {"x":0,"y":0,"w":895,"h":1000},
	"sourceSize": {"w":895,"h":1000},
	"pivot": {"x":0.5,"y":0.5}
}],
"meta": {
	"app": "http://www.codeandweb.com/texturepacker",
	"version": "1.0",
	"image": "Asalto.png",
	"format": "RGBA8888",
	"size": {"w":895,"h":1437},
	"scale": "1",
	"smartupdate": "$TexturePacker:SmartUpdate:88e6e12ca645da7bccc6af497052fdcb:41a92c6b80d683e6e3670e9e2fc374e3:044bb5eb4d5293fe69db6c5184bc40be$"
}
}
